<svg xmlns="http://www.w3.org/2000/svg" xmlns:xlink="http://www.w3.org/1999/xlink" width="191" height="191" viewBox="0 0 191 191">
    <defs>
        <path id="a" d="M.01.17H26.35v26.348H.011z"/>
    </defs>
    <g fill="none" fill-rule="evenodd">
        <g fill="#FFF">
            <path d="M74.341 81.463l9.235 34.464 56.94-15.257-9.235-34.464-56.94 15.257zm7.364 37.704a1.546 1.546 0 0 1-.722-.941L70.946 80.768a1.548 1.548 0 0 1 1.096-1.898l59.934-16.059a1.548 1.548 0 0 1 1.898 1.096l10.037 37.458a1.548 1.548 0 0 1-1.096 1.897l-59.934 16.06c-.413.11-.832.043-1.176-.155z"/>
            <path d="M128.643 66.913L76.98 80.756l31.6 14.605 20.064-28.448zM71.668 81.709a1.549 1.549 0 0 1 .376-2.838l59.932-16.06a1.556 1.556 0 0 1 1.672.61 1.552 1.552 0 0 1-.004 1.78L110.37 98.203a1.552 1.552 0 0 1-1.918.514L71.792 81.774c-.042-.02-.083-.041-.124-.065z"/>
            <path d="M131.735 67.905l-16.334 23.162 24.769 8.311-8.435-31.473zM112.16 93.216a1.548 1.548 0 0 1-.493-2.235l19.441-27.566a1.55 1.55 0 0 1 2.765.491l10.036 37.458a1.55 1.55 0 1 1-1.99 1.87L112.44 93.34a1.345 1.345 0 0 1-.28-.125z"/>
        </g>
        <path fill="#FFF" d="M74.798 83.162l8.433 31.472 17.294-19.582-25.727-11.89zm6.907 36.005a1.552 1.552 0 0 1-.722-.941L70.946 80.768a1.55 1.55 0 0 1 2.148-1.807l30.62 14.152c.445.21.766.61.866 1.09.101.478-.03.976-.356 1.344l-20.582 23.306c-.378.428-.96.613-1.516.484a1.653 1.653 0 0 1-.42-.17z"/>
        <g transform="rotate(30 -142.954 127.24)">
            <mask id="b" fill="#fff">
                <use xlink:href="#a"/>
            </mask>
            <path fill="#FFF" d="M12.4 26.518a1.548 1.548 0 0 1-1.096-2.646l10.85-10.85a1.548 1.548 0 0 1 2.19 0 1.548 1.548 0 0 1 0 2.192l-10.849 10.85c-.302.302-.699.454-1.095.454M1.55 26.518a1.548 1.548 0 0 1-1.096-2.646L23.703.624a1.548 1.548 0 0 1 2.192 0 1.548 1.548 0 0 1 0 2.191L2.646 26.064a1.545 1.545 0 0 1-1.096.454M1.55 15.669a1.549 1.549 0 0 1-1.096-2.646l3.1-3.1a1.548 1.548 0 0 1 2.192 0 1.548 1.548 0 0 1 0 2.192l-3.1 3.1a1.545 1.545 0 0 1-1.096.454" mask="url(#b)"/>
        </g>
        <path fill="#FFF" d="M48.562 100.032a1.548 1.548 0 0 1 .374-2.839l6.352-1.702a1.548 1.548 0 0 1 1.898 1.096 1.548 1.548 0 0 1-1.096 1.898l-6.352 1.702c-.413.11-.832.043-1.176-.155M61.265 96.628a1.548 1.548 0 0 1 .374-2.839l8.47-2.27a1.549 1.549 0 0 1 1.897 1.097 1.549 1.549 0 0 1-1.096 1.898l-8.469 2.269c-.412.11-.832.044-1.176-.155M70.661 102.053a1.548 1.548 0 0 1 .374-2.839l4.234-1.135a1.548 1.548 0 0 1 1.898 1.096 1.548 1.548 0 0 1-1.095 1.898l-4.235 1.135c-.413.11-.832.043-1.176-.155M63.12 112.016a1.549 1.549 0 0 1 .374-2.84l6.35-1.701a1.548 1.548 0 0 1 1.899 1.096 1.548 1.548 0 0 1-1.096 1.898l-6.352 1.702c-.413.11-.832.043-1.176-.155"/>
        <circle cx="95.5" cy="95.5" r="94" stroke="#FFF" stroke-width="3"/>
    </g>
</svg>
